{
    "KPlugin": {
        "Category": "Accessibility",
        "Description": "Display a mouse cursor locating effect when activated",
        "EnabledByDefault": false,
        "Id": "trackmouse",
        "License": "GPL",
        "Name": "Track Mouse"
    },
    "X-KDE-ConfigModule": "kwin_trackmouse_config",
    "org.kde.kwin.effect": {
        "video": "https://files.kde.org/plasma/kwin/effect-videos/track_mouse.mp4"
    }
}
